{
    "routes" : {
        "index" : {
            "route" : "/",
            "controller" : "IndexController"
        },
        "login" : {
            "route" : "/login/",
            "controller" : "LoginController"
        },
        "logout" : {
            "route" : "/logout/",
            "controller" : "LogoutController"
        },
        "register" : {
            "route" : "/register/",
            "controller" : "RegisterController"
        },
        "template" : {
            "route" : "/template/:name",
            "controller" : "TemplateController",
            "type" : "DYNAMIC"
        },
        "css" : {
            "route" : "\\/css\\/(?<name>.+?)\\.css",
            "controller" : "CSSController",
            "type" : "REGEX"
        }
    }
}